-a="C:\Users\Gamer\Desktop\project-brawler\Project Brawler\Library\PlayerScriptAssemblies\Assembly-CSharp-firstpass.dll"
-a="C:\Users\Gamer\Desktop\project-brawler\Project Brawler\Library\PlayerScriptAssemblies\Assembly-CSharp.dll"
-a="C:\Users\Gamer\Desktop\project-brawler\Project Brawler\Library\PlayerScriptAssemblies\Unity.RenderPipelines.Universal.Shaders.dll"
-a="C:\Users\Gamer\Desktop\project-brawler\Project Brawler\Library\PlayerScriptAssemblies\Unity.RenderPipelines.Universal.Runtime.dll"
-a="C:\Users\Gamer\Desktop\project-brawler\Project Brawler\Library\PlayerScriptAssemblies\UnityEngine.TestRunner.dll"
-a="C:\Users\Gamer\Desktop\project-brawler\Project Brawler\Library\PlayerScriptAssemblies\Unity.Timeline.dll"
-a="C:\Users\Gamer\Desktop\project-brawler\Project Brawler\Library\PlayerScriptAssemblies\Unity.TextMeshPro.dll"
-a="C:\Users\Gamer\Desktop\project-brawler\Project Brawler\Library\PlayerScriptAssemblies\Unity.ProBuilder.Csg.dll"
-a="C:\Users\Gamer\Desktop\project-brawler\Project Brawler\Library\PlayerScriptAssemblies\Unity.RenderPipelines.Core.Runtime.dll"
-a="C:\Users\Gamer\Desktop\project-brawler\Project Brawler\Library\PlayerScriptAssemblies\Unity.ProBuilder.dll"
-a="C:\Users\Gamer\Desktop\project-brawler\Project Brawler\Library\PlayerScriptAssemblies\Unity.InputSystem.dll"
-a="C:\Users\Gamer\Desktop\project-brawler\Project Brawler\Library\PlayerScriptAssemblies\Unity.RenderPipelines.Core.ShaderLibrary.dll"
-a="C:\Users\Gamer\Desktop\project-brawler\Project Brawler\Library\PlayerScriptAssemblies\UnityEngine.UI.dll"
-a="C:\Users\Gamer\Desktop\project-brawler\Project Brawler\Library\PlayerScriptAssemblies\Unity.ProBuilder.Poly2Tri.dll"
-a="C:\Users\Gamer\Desktop\project-brawler\Project Brawler\Library\PlayerScriptAssemblies\Unity.ProBuilder.KdTree.dll"
-a="C:\Users\Gamer\Desktop\project-brawler\Project Brawler\Library\PlayerScriptAssemblies\Unity.Mathematics.dll"
-a="C:\Users\Gamer\Desktop\project-brawler\Project Brawler\Library\PlayerScriptAssemblies\Cinemachine.dll"
-a="C:\Users\Gamer\Desktop\project-brawler\Project Brawler\Library\PlayerScriptAssemblies\Unity.ProBuilder.Stl.dll"
-a="C:\Users\Gamer\Desktop\project-brawler\Project Brawler\Library\PlayerScriptAssemblies\Unity.RenderPipeline.Universal.ShaderLibrary.dll"
-a="C:\Users\Gamer\Desktop\project-brawler\Project Brawler\Library\PlayerScriptAssemblies\Unity.RenderPipelines.ShaderGraph.ShaderGraphLibrary.dll"
-a="C:\Users\Gamer\Desktop\project-brawler\Project Brawler\Library\PackageCache\com.unity.nuget.newtonsoft-json@3.0.2\Runtime\AOT\Newtonsoft.Json.dll"
-a="C:\Users\Gamer\Desktop\project-brawler\Project Brawler\Assets\Plugins\Web3\Web3\sdk_core_ethers.dll"
-a="C:\Users\Gamer\Desktop\project-brawler\Project Brawler\Assets\Plugins\Analytics\Serilog.Sinks.File.dll"
-a="C:\Users\Gamer\Desktop\project-brawler\Project Brawler\Assets\Plugins\Web3\Web3\BouncyCastle.Crypto.dll"
-a="C:\Users\Gamer\Desktop\project-brawler\Project Brawler\Assets\Plugins\Analytics\Serilog.Sinks.Datadog.Logs.dll"
-a="C:\Users\Gamer\Desktop\project-brawler\Project Brawler\Assets\Plugins\Analytics\Serilog.Sinks.PeriodicBatching.dll"
-a="C:\Users\Gamer\Desktop\project-brawler\Project Brawler\Assets\Plugins\Analytics\Serilog.dll"
-a="C:\Users\Gamer\Desktop\project-brawler\Project Brawler\Assets\Plugins\Analytics\GameData.dll"
-a="C:\Users\Gamer\Desktop\project-brawler\Project Brawler\Assets\Plugins\Web3\Web3\SDKConfiguration.dll"
-a="C:\Users\Gamer\Desktop\project-brawler\Project Brawler\Library\PackageCache\com.unity.nuget.newtonsoft-json@3.0.2\Runtime\Newtonsoft.Json.dll"
-a="C:\Users\Gamer\Desktop\project-brawler\Project Brawler\Library\PackageCache\com.unity.ext.nunit@1.0.6\net35\unity-custom\nunit.framework.dll"
-s="C:\Program Files\Unity Editors\2020.3.34f1\Editor\Data\Managed\UnityEngine"
-s="C:\Users\Gamer\Desktop\project-brawler\Project Brawler\Library\PlayerScriptAssemblies"
-s="C:\Users\Gamer\Desktop\project-brawler\Project Brawler\Library\PackageCache\com.unity.nuget.newtonsoft-json@3.0.2\Runtime\AOT"
-s="C:\Users\Gamer\Desktop\project-brawler\Project Brawler\Assets\Plugins\Web3\Web3"
-s="C:\Users\Gamer\Desktop\project-brawler\Project Brawler\Assets\Plugins\Analytics"
-s="C:\Users\Gamer\Desktop\project-brawler\Project Brawler\Library\PackageCache\com.unity.nuget.newtonsoft-json@3.0.2\Runtime"
-s="C:\Users\Gamer\Desktop\project-brawler\Project Brawler\Library\PackageCache\com.unity.ext.nunit@1.0.6\net35\unity-custom"
-s="C:\Program Files\Unity Editors\2020.3.34f1\Editor\Data\Managed\UnityEngine"
-s="C:\Program Files\Unity Editors\2020.3.34f1\Editor\Data\NetStandard\ref\2.0.0"
-s="C:\Program Files\Unity Editors\2020.3.34f1\Editor\Data\NetStandard\compat\2.0.0\shims\netstandard"
-s="C:\Program Files\Unity Editors\2020.3.34f1\Editor\Data\NetStandard\Extensions\2.0.0"
-s="C:\Program Files\Unity Editors\2020.3.34f1\Editor\Data\NetStandard\compat\2.0.0\shims\netfx"
-o="C:\Users\Gamer\Desktop\project-brawler\Project Brawler\Library\BuildPlayerData\Player"
-rn="RuntimeInitializeOnLoads.json"
-tn="TypeDb-All.json"
